{
  "channel_id": "json-channel",
  "read_set": {
    "groups": {
      "Application": {
        "groups": {
          "Org1MSP": {},
          "Org2MSP": {}
        }
      }
    },
    "values": {
      "Consortium": {}
    }
  },
  "write_set": {
    "groups": {
      "Application": {
        "groups": {
          "Org1MSP": {},
          "Org2MSP": {}
        },
        "mod_policy": "Admins",
        "policies": {
          "Admins": {
            "mod_policy": "Admins",
            "policy": {
              "type": 1,
              "value": {
                "identities": [
                  {
                    "principal": {
                      "msp_identifier": "Org1MSP",
                      "role": "ADMIN"
                    },
                    "principal_classification": "ROLE"
                  }
                ],
                "rule": {
                  "n_out_of": {
                    "n": 1,
                    "rules": [
                      {
                        "signed_by": 0
                      }
                    ]
                  }
                }
              }
            }
          },
          "Readers": {
            "mod_policy": "Admins",
            "policy": {
              "type": 3,
              "value": {
                "rule": "ANY",
                "sub_policy": "Readers"
              }
            }
          },
          "Writers": {
            "mod_policy": "Admins",
            "policy": {
              "type": 3,
              "value": {
                "rule": "ANY",
                "sub_policy": "Writers"
              }
            }
          }
        },
        "values": {
          "Capabilities": {
            "mod_policy": "Admins",
            "value": {
              "capabilities": {
                "V1_3": {}
              }
            }
          }
        },
        "version": "1"
      }
    },
    "values": {
      "Consortium": {
        "value": {
          "name": "OptheriumConsortium"
        }
      }
    }
  }
}

